Manipulation de données avec R
…
```
## [1] "tbl_df"     "tbl"        "data.frame"
```

- L'affichage des `tibbles` est plus condensé et explicite, et ce format simplifie la gestion, en particulier pour la manipulation avec `dplyr` :
.small[

```r
df_dmr
```

```
## # A tibble: 343,642 x 16
##    TYPE  SOUSTYPE ADRESSE CODE_POSTAL VILLE ARRONDISSEMENT
##    <chr> <chr>    <chr>         <int> <chr>          <dbl>
##  1 Mobi… Mobilie… 16 rue…       75011 Pari…             11
##  2 Obje… Gravats… 15 rue…       75018 Pari…             18
##  3 Obje… Meubles… 16 rue…       75019 Pari…             19
##  4 Voir… Station… 15 rue…       75003 Pari…              3
##  5 Prop… Malprop… 24 rue…       75018 Pari…             18
##  6 Mobi… Mobilie… 9 vill…       75014 Pari…             14
##  7 Obje… Planche… 19 rue…       75011 Pari…             11
##  8 Obje… Objets … 3 aven…       75016 Pari…             16
##  9 Voir… Trottoi… 185b r…       75018 Pari…             18
## 10 Prop… Malprop… 138 ru…       75020 Pari…             20
## # ... with 343,632 more rows, and 10 more variables: DATEDECL <dttm>,
## #   `ANNEE DECLARATION` <int>, `MOIS DECLARATION` <int>, NUMERO <dbl>,
## #   PREFIXE <chr>, INTERVENANT <chr>, `CONSEIL DE QUARTIER` <chr>,
## #   OBJECTID <int>, geo_shape <chr>, geo_point_2d <chr>
```
…
**select()** permet de **sélectionner des variables**

Par exemple, on peut sélectionner des variables de la table `df_dmr` :
.small[

```r
print(df_dmr)
```

```
## # A tibble: 343,642 x 16
##    TYPE  SOUSTYPE ADRESSE CODE_POSTAL VILLE ARRONDISSEMENT
##    <chr> <chr>    <chr>         <int> <chr>          <dbl>
##  1 Mobi… Mobilie… 16 rue…       75011 Pari…             11
##  2 Obje… Gravats… 15 rue…       75018 Pari…             18
##  3 Obje… Meubles… 16 rue…       75019 Pari…             19
##  4 Voir… Station… 15 rue…       75003 Pari…              3
##  5 Prop… Malprop… 24 rue…       75018 Pari…             18
##  6 Mobi… Mobilie… 9 vill…       75014 Pari…             14
##  7 Obje… Planche… 19 rue…       75011 Pari…             11
##  8 Obje… Objets … 3 aven…       75016 Pari…             16
##  9 Voir… Trottoi… 185b r…       75018 Pari…             18
## 10 Prop… Malprop… 138 ru…       75020 Pari…             20
## # ... with 343,632 more rows, and 10 more variables: DATEDECL <dttm>,
## #   `ANNEE DECLARATION` <int>, `MOIS DECLARATION` <int>, NUMERO <dbl>,
## #   PREFIXE <chr>, INTERVENANT <chr>, `CONSEIL DE QUARTIER` <chr>,
## #   OBJECTID <int>, geo_shape <chr>, geo_point_2d <chr>
```
…
**select()** permet de **sélectionner des variables**

Par exemple, on peut sélectionner des variables de la table `df_dmr` :
- **Par leur nom**
.small[

```r
select(df_dmr, TYPE, SOUSTYPE, CODE_POSTAL)
```

```
## # A tibble: 343,642 x 3
##    TYPE                          SOUSTYPE                      CODE_POSTAL
##    <chr>                         <chr>                               <int>
##  1 Mobiliers urbains dégradés (… Mobiliers de protection :Pot…       75011
##  2 Objets abandonnés             Gravats ou déchets de chanti…       75018
##  3 Objets abandonnés             Meubles et éléments de décor…       75019
##  4 Voirie et déplacements        Stationnement gênant de véhi…       75003
##  5 Propreté                      Malpropreté des mobiliers de…       75018
##  6 Mobiliers urbains dégradés (… Mobiliers de protection :Pot…       75014
##  7 Objets abandonnés             Planches et palettes                75011
##  8 Objets abandonnés             Objets entrant dans plusieur…       75016
##  9 Voirie et déplacements        Trottoirs:Revêtement manquant       75018
## 10 Propreté                      Malpropreté du sol:Déchets d…       75020
## # ... with 343,632 more rows
```
…
**select()** permet de **sélectionner des variables**

Par exemple, on peut sélectionner des variables de la table `df_dmr` :
- Par leur nom, **par leur numéro**
.small[

```r
select(df_dmr, 3:7)
```

```
## # A tibble: 343,642 x 5
##    ADRESSE           CODE_POSTAL VILLE  ARRONDISSEMENT DATEDECL           
##    <chr>                   <int> <chr>           <dbl> <dttm>             
##  1 16 rue de l'oril…       75011 Paris…             11 2017-12-02 01:00:00
##  2 15 rue joseph di…       75018 Paris…             18 2017-11-30 01:00:00
##  3 16 rue archereau…       75019 Paris…             19 2017-12-03 01:00:00
##  4 15 rue réaumur, …       75003 Paris…              3 2017-12-04 01:00:00
##  5 24 rue custine, …       75018 Paris…             18 2017-12-03 01:00:00
##  6 9 villa virginie…       75014 Paris…             14 2017-10-15 02:00:00
##  7 19 rue de mont-l…       75011 Paris…             11 2017-12-02 01:00:00
##  8 3 avenue boudon,…       75016 Paris…             16 2017-12-05 01:00:00
##  9 185b rue ordener…       75018 Paris…             18 2017-07-17 02:00:00
## 10 138 rue pellepor…       75020 Paris…             20 2017-12-05 01:00:00
## # ... with 343,632 more rows
```
…
**select()** permet de **sélectionner des variables**

Par exemple, on peut sélectionner des variables de la table `df_dmr` :
- Par leur nom, par leur numéro, **en excluant des variables**
.small[

```r
select(df_dmr, -(4:7), - SOUSTYPE)
```

```
## # A tibble: 343,642 x 11
##    TYPE  ADRESSE `ANNEE DECLARAT… `MOIS DECLARATI… NUMERO PREFIXE
##    <chr> <chr>              <int>            <int>  <dbl> <chr>  
##  1 Mobi… 16 rue…             2017               12    576 S      
##  2 Obje… 15 rue…             2017               11   9444 A      
##  3 Obje… 16 rue…             2017               12    696 G      
##  4 Voir… 15 rue…             2017               12   1259 A      
##  5 Prop… 24 rue…             2017               12    818 S      
##  6 Mobi… 9 vill…             2017               10   5376 G      
##  7 Obje… 19 rue…             2017               12    525 G      
##  8 Obje… 3 aven…             2017               12   1533 S      
##  9 Voir… 185b r…             2017                7   4433 S      
## 10 Prop… 138 ru…             2017               12   1653 S      
## # ... with 343,632 more rows, and 5 more variables: INTERVENANT <chr>,
## #   `CONSEIL DE QUARTIER` <chr>, OBJECTID <int>, geo_shape <chr>,
## #   geo_point_2d <chr>
```
…
```
##  [1] "TYPE"                "SOUSTYPE"            "ADRESSE"            
##  [4] "CODE_POSTAL"         "VILLE"               "ARRONDISSEMENT"     
##  [7] "DATEDECL"            "ANNEE DECLARATION"   "MOIS DECLARATION"   
## [10] "NUMERO"              "PREFIXE"             "INTERVENANT"        
## [13] "CONSEIL DE QUARTIER" "OBJECTID"            "geo_shape"          
## [16] "geo_point_2d"
```

```r
select(df_dmr, starts_with("A"))
```

```
## # A tibble: 343,642 x 3
##    ADRESSE                           ARRONDISSEMENT `ANNEE DECLARATION`
##    <chr>                                      <dbl>               <int>
##  1 16 rue de l'orillon, 75011 PARIS              11                2017
##  2 15 rue joseph dijon, 75018 PARIS              18                2017
##  3 16 rue archereau, 75019 PARIS                 19                2017
##  4 15 rue réaumur, 75003 PARIS                    3                2017
##  5 24 rue custine, 75018 PARIS                   18                2017
##  6 9 villa virginie, 75014 PARIS                 14                2017
##  7 19 rue de mont-louis, 75011 PARIS             11                2017
##  8 3 avenue boudon, 75016 PARIS                  16                2017
##  9 185b rue ordener, 75018 PARIS                 18                2017
## 10 138 rue pelleport, 75020 PARIS                20                2017
## # ... with 343,632 more rows
```
…
```
##  [1] "TYPE"                "SOUSTYPE"            "ADRESSE"            
##  [4] "CODE_POSTAL"         "VILLE"               "ARRONDISSEMENT"     
##  [7] "DATEDECL"            "ANNEE DECLARATION"   "MOIS DECLARATION"   
## [10] "NUMERO"              "PREFIXE"             "INTERVENANT"        
## [13] "CONSEIL DE QUARTIER" "OBJECTID"            "geo_shape"          
## [16] "geo_point_2d"
```

```r
select(df_dmr, ends_with("DECLARATION"))
```

```
## # A tibble: 343,642 x 2
##    `ANNEE DECLARATION` `MOIS DECLARATION`
##                  <int>              <int>
##  1                2017                 12
##  2                2017                 11
##  3                2017                 12
##  4                2017                 12
##  5                2017                 12
##  6                2017                 10
##  7                2017                 12
##  8                2017                 12
##  9                2017                  7
## 10                2017                 12
## # ... with 343,632 more rows
```
…
```
##  [1] "TYPE"                "SOUSTYPE"            "ADRESSE"            
##  [4] "CODE_POSTAL"         "VILLE"               "ARRONDISSEMENT"     
##  [7] "DATEDECL"            "ANNEE DECLARATION"   "MOIS DECLARATION"   
## [10] "NUMERO"              "PREFIXE"             "INTERVENANT"        
## [13] "CONSEIL DE QUARTIER" "OBJECTID"            "geo_shape"          
## [16] "geo_point_2d"
```

```r
select(df_dmr, contains("TYPE"))
```

```
## # A tibble: 343,642 x 2
##    TYPE                                SOUSTYPE                           
##    <chr>                               <chr>                              
##  1 Mobiliers urbains dégradés (arrach… Mobiliers de protection :Potelet, …
##  2 Objets abandonnés                   Gravats ou déchets de chantier     
##  3 Objets abandonnés                   Meubles et éléments de décoration  
##  4 Voirie et déplacements              Stationnement gênant de véhicule m…
##  5 Propreté                            Malpropreté des mobiliers de colle…
##  6 Mobiliers urbains dégradés (arrach… Mobiliers de protection :Potelet, …
##  7 Objets abandonnés                   Planches et palettes               
##  8 Objets abandonnés                   Objets entrant dans plusieurs caté…
##  9 Voirie et déplacements              Trottoirs:Revêtement manquant      
## 10 Propreté                            Malpropreté du sol:Déchets divers …
## # ... with 343,632 more rows
```
…
```r
nrow(df_dmr)
```

```
## [1] 343642
```

```r
filter(df_dmr, CODE_POSTAL == 75006 & `ANNEE DECLARATION` == 2018)
```

```
## # A tibble: 359 x 16
##    TYPE  SOUSTYPE ADRESSE CODE_POSTAL VILLE ARRONDISSEMENT
##    <chr> <chr>    <chr>         <int> <chr>          <dbl>
##  1 Obje… Épave d… place …       75006 Pari…              6
##  2 Voir… Station… 15 rue…       75006 Pari…              6
##  3 Eau … Dysfonc… 62 rue…       75006 Pari…              6
##  4 Graf… Graffit… 8 rue …       75006 Pari…              6
##  5 Obje… Autre o… 12 rue…       75006 Pari…              6
##  6 Prob… Chantie… 9 rue …       75006 Pari…              6
##  7 Graf… Graffit… 19 rue…       75006 Pari…              6
##  8 Prop… Malprop… 9 rue …       75006 Pari…              6
##  9 Voir… Station… 16 rue…       75006 Pari…              6
## 10 Arbr… Problèm… 32 rue…       75006 Pari…              6
## # ... with 349 more rows, and 10 more variables: DATEDECL <dttm>, `ANNEE
## #   DECLARATION` <int>, `MOIS DECLARATION` <int>, NUMERO <dbl>,
## #   PREFIXE <chr>, INTERVENANT <chr>, `CONSEIL DE QUARTIER` <chr>,
## #   OBJECTID <int>, geo_shape <chr>, geo_point_2d <chr>
```
…
```r
nrow(df_dmr)
```

```
## [1] 343642
```

```r
filter(df_dmr, CODE_POSTAL == 75006 | CODE_POSTAL == 75007)
```

```
## # A tibble: 13,668 x 16
##    TYPE  SOUSTYPE ADRESSE CODE_POSTAL VILLE ARRONDISSEMENT
##    <chr> <chr>    <chr>         <int> <chr>          <dbl>
##  1 Prop… Malprop… 20 rue…       75007 Pari…              7
##  2 Graf… Graffit… 23 rue…       75007 Pari…              7
##  3 Graf… Graffit… 1 rue …       75006 Pari…              6
##  4 Mobi… Autres … 20 ave…       75007 Pari…              7
##  5 Mobi… Mobilie… avenue…       75007 Pari…              7
##  6 Obje… Planche… 8 rue …       75007 Pari…              7
##  7 Prob… Chantie… 25 rue…       75006 Pari…              6
##  8 Prop… Malprop… 46 ave…       75007 Pari…              7
##  9 Prop… Malprop… boulev…       75007 Pari…              7
## 10 Obje… Autre o… avenue…       75007 Pari…              7
## # ... with 13,658 more rows, and 10 more variables: DATEDECL <dttm>,
## #   `ANNEE DECLARATION` <int>, `MOIS DECLARATION` <int>, NUMERO <dbl>,
## #   PREFIXE <chr>, INTERVENANT <chr>, `CONSEIL DE QUARTIER` <chr>,
## #   OBJECTID <int>, geo_shape <chr>, geo_point_2d <chr>
```
…
```r
nrow(df_dmr)
```

```
## [1] 343642
```

```r
filter(df_dmr, !(CODE_POSTAL == 75006))
```

```
## # A tibble: 337,750 x 16
##    TYPE  SOUSTYPE ADRESSE CODE_POSTAL VILLE ARRONDISSEMENT
##    <chr> <chr>    <chr>         <int> <chr>          <dbl>
##  1 Mobi… Mobilie… 16 rue…       75011 Pari…             11
##  2 Obje… Gravats… 15 rue…       75018 Pari…             18
##  3 Obje… Meubles… 16 rue…       75019 Pari…             19
##  4 Voir… Station… 15 rue…       75003 Pari…              3
##  5 Prop… Malprop… 24 rue…       75018 Pari…             18
##  6 Mobi… Mobilie… 9 vill…       75014 Pari…             14
##  7 Obje… Planche… 19 rue…       75011 Pari…             11
##  8 Obje… Objets … 3 aven…       75016 Pari…             16
##  9 Voir… Trottoi… 185b r…       75018 Pari…             18
## 10 Prop… Malprop… 138 ru…       75020 Pari…             20
## # ... with 337,740 more rows, and 10 more variables: DATEDECL <dttm>,
## #   `ANNEE DECLARATION` <int>, `MOIS DECLARATION` <int>, NUMERO <dbl>,
## #   PREFIXE <chr>, INTERVENANT <chr>, `CONSEIL DE QUARTIER` <chr>,
## #   OBJECTID <int>, geo_shape <chr>, geo_point_2d <chr>
```
…
```r
nrow(df_dmr)
```

```
## [1] 343642
```

```r
# L'opérateur %in% permet de chercher parmi les valeurs d'un vecteur
filter(df_dmr, CODE_POSTAL %in% c(75006, 75008)) 
```

```
## # A tibble: 10,768 x 16
##    TYPE  SOUSTYPE ADRESSE CODE_POSTAL VILLE ARRONDISSEMENT
##    <chr> <chr>    <chr>         <int> <chr>          <dbl>
##  1 Prop… Malprop… 38 rue…       75008 Pari…              8
##  2 Graf… Graffit… 1 rue …       75006 Pari…              6
##  3 Prob… Chantie… 25 rue…       75006 Pari…              6
##  4 Arbr… Problèm… jardin…       75008 Pari…              8
##  5 Prop… Malprop… 2 rue …       75006 Pari…              6
##  6 Voir… Trottoi… 6 plac…       75006 Pari…              6
##  7 Prop… Malprop… 22 rue…       75008 Pari…              8
##  8 Voir… Gênes à… 19 rue…       75008 Pari…              8
##  9 Obje… Épave d… place …       75006 Pari…              6
## 10 Voir… Station… 15 rue…       75006 Pari…              6
## # ... with 10,758 more rows, and 10 more variables: DATEDECL <dttm>,
## #   `ANNEE DECLARATION` <int>, `MOIS DECLARATION` <int>, NUMERO <dbl>,
## #   PREFIXE <chr>, INTERVENANT <chr>, `CONSEIL DE QUARTIER` <chr>,
## #   OBJECTID <int>, geo_shape <chr>, geo_point_2d <chr>
```
…
Pour trier un tableau selon l'ordre d'une variable (réarranger les lignes d'un tableau), on peut faire appel à la fonction `arrange` : 

.pull-left[
.tiny[

```r
df_dmr
```

```
## # A tibble: 343,642 x 16
##    TYPE  SOUSTYPE ADRESSE CODE_POSTAL VILLE ARRONDISSEMENT
##    <chr> <chr>    <chr>         <int> <chr>          <dbl>
##  1 Mobi… Mobilie… 16 rue…       75011 Pari…             11
##  2 Obje… Gravats… 15 rue…       75018 Pari…             18
##  3 Obje… Meubles… 16 rue…       75019 Pari…             19
##  4 Voir… Station… 15 rue…       75003 Pari…              3
##  5 Prop… Malprop… 24 rue…       75018 Pari…             18
##  6 Mobi… Mobilie… 9 vill…       75014 Pari…             14
##  7 Obje… Planche… 19 rue…       75011 Pari…             11
##  8 Obje… Objets … 3 aven…       75016 Pari…             16
##  9 Voir… Trottoi… 185b r…       75018 Pari…             18
## 10 Prop… Malprop… 138 ru…       75020 Pari…             20
## # ... with 343,632 more rows, and 10 more variables: DATEDECL <dttm>,
## #   `ANNEE DECLARATION` <int>, `MOIS DECLARATION` <int>, NUMERO <dbl>,
## #   PREFIXE <chr>, INTERVENANT <chr>, `CONSEIL DE QUARTIER` <chr>,
## #   OBJECTID <int>, geo_shape <chr>, geo_point_2d <chr>
```
]
]

.pull-right[
.tiny[

```r
arrange(df_dmr, CODE_POSTAL)
```

```
## # A tibble: 343,642 x 16
##    TYPE  SOUSTYPE ADRESSE CODE_POSTAL VILLE ARRONDISSEMENT
##    <chr> <chr>    <chr>         <int> <chr>          <dbl>
##  1 Obje… Objets … 12 rue…       75001 Pari…              1
##  2 Prop… Malprop… 23 Rue…       75001 Pari…              1
##  3 Graf… Affiche… 12 rue…       75001 Pari…              1
##  4 Graf… Graffit… 3 rue …       75001 Pari…              1
##  5 Graf… Graffit… 11 rue…       75001 Pari…              1
##  6 Graf… Graffit… place …       75001 Pari…              1
##  7 Du v… Pot ou … 296  r…       75001 Pari…              1
##  8 Obje… Autre o… 17 rue…       75001 Pari…              1
##  9 Écla… Fils él… 1 rue …       75001 Pari…              1
## 10 Graf… Graffit… 20 rue…       75001 Pari…              1
## # ... with 343,632 more rows, and 10 more variables: DATEDECL <dttm>,
## #   `ANNEE DECLARATION` <int>, `MOIS DECLARATION` <int>, NUMERO <dbl>,
## #   PREFIXE <chr>, INTERVENANT <chr>, `CONSEIL DE QUARTIER` <chr>,
## #   OBJECTID <int>, geo_shape <chr>, geo_point_2d <chr>
```
…
On peut aussi trier un `tibble` par plusieurs variables

.pull-left[
.tiny[

```r
arrange(df_dmr, CODE_POSTAL)
```

```
## # A tibble: 343,642 x 16
##    TYPE  SOUSTYPE ADRESSE CODE_POSTAL VILLE ARRONDISSEMENT
##    <chr> <chr>    <chr>         <int> <chr>          <dbl>
##  1 Obje… Objets … 12 rue…       75001 Pari…              1
##  2 Prop… Malprop… 23 Rue…       75001 Pari…              1
##  3 Graf… Affiche… 12 rue…       75001 Pari…              1
##  4 Graf… Graffit… 3 rue …       75001 Pari…              1
##  5 Graf… Graffit… 11 rue…       75001 Pari…              1
##  6 Graf… Graffit… place …       75001 Pari…              1
##  7 Du v… Pot ou … 296  r…       75001 Pari…              1
##  8 Obje… Autre o… 17 rue…       75001 Pari…              1
##  9 Écla… Fils él… 1 rue …       75001 Pari…              1
## 10 Graf… Graffit… 20 rue…       75001 Pari…              1
## # ... with 343,632 more rows, and 10 more variables: DATEDECL <dttm>,
## #   `ANNEE DECLARATION` <int>, `MOIS DECLARATION` <int>, NUMERO <dbl>,
## #   PREFIXE <chr>, INTERVENANT <chr>, `CONSEIL DE QUARTIER` <chr>,
## #   OBJECTID <int>, geo_shape <chr>, geo_point_2d <chr>
```
]
]

.pull-right[
.tiny[

```r
arrange(df_dmr, CODE_POSTAL, TYPE)
```

```
## # A tibble: 343,642 x 16
##    TYPE  SOUSTYPE ADRESSE CODE_POSTAL VILLE ARRONDISSEMENT
##    <chr> <chr>    <chr>         <int> <chr>          <dbl>
##  1 Arbr… Problèm… 9 rue …       75001 Pari…              1
##  2 Arbr… Problèm… 10 rue…       75001 Pari…              1
##  3 Arbr… Problèm… 4 plac…       75001 Pari…              1
##  4 Arbr… Problèm… rue be…       75001 Pari…              1
##  5 Arbr… Problèm… 67 rue…       75001 Pari…              1
##  6 Arbr… Problèm… rue de…       75001 Pari…              1
##  7 Arbr… Problèm… 38 rue…       75001 Pari…              1
##  8 Arbr… Problèm… 53 rue…       75001 Pari…              1
##  9 Arbr… Problèm… 22 rue…       75001 Pari…              1
## 10 Arbr… Problèm… place …       75001 Pari…              1
## # ... with 343,632 more rows, and 10 more variables: DATEDECL <dttm>,
## #   `ANNEE DECLARATION` <int>, `MOIS DECLARATION` <int>, NUMERO <dbl>,
## #   PREFIXE <chr>, INTERVENANT <chr>, `CONSEIL DE QUARTIER` <chr>,
## #   OBJECTID <int>, geo_shape <chr>, geo_point_2d <chr>
```
…
